____  _____                         ____  
/ ___||__  / ___    ___   _ __ ___  |___ \ 
| |  _   / / / _ \  / _ \ | '_ ` _ \   __) |
| |_| | / /_| (_) || (_) || | | | | | / __/ 
\____|/____|\___/  \___/ |_| |_| |_||_____| REPORT